{
  "electronics": {
    "development_boards": [
      {
        "name": "ESP-01",
        "description": "This is an ESP8266",
        "excerpt": "ESP8266 is a highly integrated chip designed for the needs of a new connected world. It offers a complete and self-contained Wi-Fi networking solution, allowing it to either host the application or to establish an Internet connection.",
        "img": "esp-01.jpg"
      },
      {
        "name": "Wemos D1",
        "description": "This is an ESP8266",
        "excerpt": "Recommended reading: Best ESP8266 Wi-Fi Development Board",
        "img": "wemos-d1-mini.jpg"
      },
      {
        "name": "ESP32",
        "description": "This is an ESP8266",
        "img": "esp32-263.jpg"
      },
      {
        "name": "ESP32-CAM",
        "description": "This is an ESP8266",
        "img": "ESP32-CAM-263.jpg"
      },
      {
        "name": "ESP32-EYE",
        "description": "This is an ESP8266",
        "img": "ESP-EYE-263.png"
      },
      {
        "name": "ESP32 Oled",
        "description": "This is an ESP8266",
        "img": "esp32-oled-lolin-img-263.jpg"
      },
      {
        "name": "Arduino Uno R3",
        "description": "This is an ESP8266",
        "img": "arduino-uno-clone-263.jpg"
      },
      {
        "name": "Arduino Nano",
        "description": "This is an ESP8266",
        "img": "arduino-nano-263.jpg"
      },
      {
        "name": "Raspberry Pi 4",
        "description": "This is an ESP8266",
        "img": "Rpi4-263.jpg"
      }
    ],
    "Sensoren": {},
    "Communicatie": {},
    "Displays": {},
    "Motors en drivers": {},
    "Batterijen en accu's": {},
    "Voedingen": {},
    "LED": {},
    "Domotica": {},
    "Electronica gereedschap": {},
    "Solderen": {}
  }
}
